<?xml version="1.0" encoding="UTF-8"?>
<svg width="220px" height="130px" viewBox="0 0 220 130" version="1.1" xmlns="http://www.w3.org/2000/svg" xmlns:xlink="http://www.w3.org/1999/xlink">
    <title>Beri Donasi@1x</title>
    <defs>
        <linearGradient x1="8.38174192%" y1="13.1876584%" x2="56.57025%" y2="50%" id="linearGradient-1">
            <stop stop-color="#CFE49F" offset="0%"></stop>
            <stop stop-color="#A9D386" offset="100%"></stop>
        </linearGradient>
        <linearGradient x1="50%" y1="7.26438915%" x2="50%" y2="151.05781%" id="linearGradient-2">
            <stop stop-color="#D0F6FF" offset="0%"></stop>
            <stop stop-color="#8BE2F7" offset="100%"></stop>
        </linearGradient>
        <linearGradient x1="4.76643799%" y1="37.17927%" x2="100%" y2="65.3316028%" id="linearGradient-3">
            <stop stop-color="#6EAE7C" offset="0%"></stop>
            <stop stop-color="#0F575D" offset="100%"></stop>
        </linearGradient>
        <linearGradient x1="36.1552309%" y1="13.1381206%" x2="52.1856656%" y2="50%" id="linearGradient-4">
            <stop stop-color="#CFE49F" offset="0%"></stop>
            <stop stop-color="#A9D386" offset="100%"></stop>
        </linearGradient>
        <linearGradient x1="34.1151714%" y1="33.9976935%" x2="64.8333502%" y2="52.4026328%" id="linearGradient-5">
            <stop stop-color="#77D791" offset="0%"></stop>
            <stop stop-color="#4FA67E" offset="100%"></stop>
        </linearGradient>
        <linearGradient x1="50%" y1="78.3991116%" x2="50.9350565%" y2="39.3093484%" id="linearGradient-6">
            <stop stop-color="#2B3389" offset="0%"></stop>
            <stop stop-color="#444FB7" offset="100%"></stop>
        </linearGradient>
        <linearGradient x1="50%" y1="7.26438915%" x2="50%" y2="151.05781%" id="linearGradient-7">
            <stop stop-color="#D0F6FF" offset="0%"></stop>
            <stop stop-color="#8BE2F7" offset="100%"></stop>
        </linearGradient>
        <linearGradient x1="50%" y1="-2.48949813e-15%" x2="50%" y2="100%" id="linearGradient-8">
            <stop stop-color="#4DBCFA" offset="0%"></stop>
            <stop stop-color="#1486DB" offset="100%"></stop>
        </linearGradient>
        <linearGradient x1="50%" y1="0%" x2="50%" y2="100%" id="linearGradient-9">
            <stop stop-color="#FF9485" offset="0%"></stop>
            <stop stop-color="#FF676E" offset="100%"></stop>
        </linearGradient>
        <linearGradient x1="50%" y1="-2.48949813e-15%" x2="50%" y2="100%" id="linearGradient-10">
            <stop stop-color="#4DBCFA" offset="0%"></stop>
            <stop stop-color="#1486DB" offset="100%"></stop>
        </linearGradient>
        <linearGradient x1="82.5767258%" y1="-52.951376%" x2="82.5767258%" y2="186.664812%" id="linearGradient-11">
            <stop stop-color="#1533B6" offset="0%"></stop>
            <stop stop-color="#356BE9" offset="100%"></stop>
        </linearGradient>
        <linearGradient x1="50%" y1="-27.3641552%" x2="50%" y2="100%" id="linearGradient-12">
            <stop stop-color="#C0E4FD" offset="0%"></stop>
            <stop stop-color="#72B9FE" offset="100%"></stop>
        </linearGradient>
        <linearGradient x1="50%" y1="-27.3641552%" x2="50%" y2="100%" id="linearGradient-13">
            <stop stop-color="#C0E4FD" offset="0%"></stop>
            <stop stop-color="#72B9FE" offset="100%"></stop>
        </linearGradient>
        <linearGradient x1="50%" y1="0%" x2="50%" y2="100%" id="linearGradient-14">
            <stop stop-color="#1D2A78" offset="0%"></stop>
            <stop stop-color="#12033B" offset="100%"></stop>
        </linearGradient>
        <linearGradient x1="50%" y1="0%" x2="50%" y2="100%" id="linearGradient-15">
            <stop stop-color="#FF9485" offset="0%"></stop>
            <stop stop-color="#FF676E" offset="100%"></stop>
        </linearGradient>
        <linearGradient x1="50%" y1="0%" x2="50%" y2="100%" id="linearGradient-16">
            <stop stop-color="#1D2A78" offset="0%"></stop>
            <stop stop-color="#12033B" offset="100%"></stop>
        </linearGradient>
        <linearGradient x1="50%" y1="0%" x2="50%" y2="100%" id="linearGradient-17">
            <stop stop-color="#FF9485" offset="0%"></stop>
            <stop stop-color="#FF676E" offset="100%"></stop>
        </linearGradient>
        <linearGradient x1="82.5767258%" y1="-52.951376%" x2="82.5767258%" y2="186.664812%" id="linearGradient-18">
            <stop stop-color="#1533B6" offset="0%"></stop>
            <stop stop-color="#356BE9" offset="100%"></stop>
        </linearGradient>
    </defs>
    <g id="Page-1" stroke="none" stroke-width="1" fill="none" fill-rule="evenodd">
        <g id="Subcription" transform="translate(-40.000000, -223.000000)">
            <g id="Group-10" transform="translate(20.000000, 208.000000)">
                <g id="Beri-Donasi" transform="translate(20.000000, 15.000000)">
                    <rect id="Rectangle" x="0" y="0" width="220" height="130"></rect>
                    <g id="Delivery-Services" transform="translate(26.000000, 15.000000)" fill-rule="nonzero">
                        <g id="Ornament">
                            <path d="M21.5658776,43.1027635 C9.65500816,43.1027635 0,33.4535176 0,21.5513818 C0,9.64924596 9.65500816,0 21.5658776,0 C33.4767471,0 43.1317552,9.64924596 43.1317552,21.5513818 C43.1317552,33.4535176 33.4767471,43.1027635 21.5658776,43.1027635 Z M21.5658776,32.8986819 C27.8352986,32.8986819 32.9183278,27.8186862 32.9183278,21.5513818 C32.9183278,15.2840773 27.8352986,10.2040816 21.5658776,10.2040816 C15.2964566,10.2040816 10.2134273,15.2840773 10.2134273,21.5513818 C10.2134273,27.8186862 15.2964566,32.8986819 21.5658776,32.8986819 Z" id="Shape" fill="url(#linearGradient-1)"></path>
                            <path d="M89.1121534,8.03571429 L118.986428,8.03571429 L118.986428,14.0306122 C118.986428,21.0750606 113.270544,26.7857143 106.219644,26.7857143 L76.3453693,26.7857143 L76.3453693,20.7908163 C76.3453693,13.746368 82.0612532,8.03571429 89.1121534,8.03571429 Z" id="Shape" fill="url(#linearGradient-2)"></path>
                            <g id="Plant" transform="translate(121.029114, 4.081633)">
                                <path d="M5.04263974,21.0271862 C8.10137944,9.15159643 15.5349486,4.97782656 27.3433476,8.50587666 C26.3386457,13.8757631 23.9474516,18.013643 20.1697653,20.9195161 C16.3920791,23.8253892 11.3497039,23.8612793 5.04263974,21.0271862 Z" id="Shape" fill="url(#linearGradient-3)"></path>
                                <path d="M14.1592139,15.7295599 L14.5774494,11.6345348 C14.5947291,11.4653453 14.8487459,11.4912413 14.831466,11.6604308 L14.4315843,15.5757515 C17.5306595,13.8261304 21.4023765,11.6550012 26.046952,9.06223688 C26.1085044,9.02787617 26.1862828,9.04987374 26.220675,9.11136981 C26.2550672,9.17286589 26.2330494,9.25057316 26.1714971,9.28493386 C23.6277586,10.7049376 21.3158412,11.9984722 19.2357802,13.1655167 L22.8330303,14.0230306 C22.9016141,14.0393797 22.9439467,14.1081805 22.9275826,14.1767015 C22.9112186,14.2452226 22.8423547,14.2875163 22.7737709,14.2711673 L18.9077609,13.3495862 C17.2411413,14.2849727 15.7269423,15.1372056 14.3651829,15.9062737 C14.3531246,15.9167327 14.3391852,15.9243927 14.3243212,15.9293515 C12.784649,16.7989643 11.4407274,17.5617835 10.2925842,18.217793 L13.6391657,19.4388189 C13.7053965,19.4629837 13.7394797,19.5362145 13.7152928,19.6023847 C13.6911058,19.6685548 13.6178078,19.7026069 13.5515771,19.6784421 L10.0185487,18.3893897 C10.0134239,18.3875198 10.0084915,18.3853561 10.0037637,18.3829247 C8.20749605,19.4106352 6.91950145,20.1610495 6.13989543,20.6340999 C6.07963041,20.6706676 6.00110483,20.6515018 5.96450365,20.591292 C5.92790247,20.531082 5.94708581,20.4526283 6.00735083,20.4160606 C7.31025931,19.6254801 10.0273681,18.0634185 14.1592139,15.7295599 Z" id="Shape" fill="#FFFFFF"></path>
                                <path d="M6.42073495,24.6084554 C0.178589508,14.0502688 2.48091272,5.84745033 13.3277046,4.14915466e-14 C16.4178339,4.50686455 17.655607,9.12206978 17.041024,13.8456157 C16.4264409,18.5691616 12.8863446,22.1567747 6.42073495,24.6084554 Z" id="Shape" fill="url(#linearGradient-4)"></path>
                                <path d="M9.11770929,14.4219768 L6.51517307,11.2308886 C6.40764709,11.0990461 6.60559198,10.9379047 6.71311796,11.0697472 L9.20144562,14.1207991 C10.1545206,10.694258 11.3556119,6.42382536 12.8047824,1.309258 C12.8239876,1.24147702 12.8945541,1.20208431 12.9623972,1.22127192 C13.0302403,1.24045952 13.0696691,1.31096149 13.0504639,1.37874247 C12.2567833,4.17988473 11.5375158,6.72782782 10.8926716,9.02253179 L14.0432187,7.08757459 C14.1032859,7.05068341 14.1819136,7.0694267 14.2188386,7.12943892 C14.2557636,7.18945112 14.2370031,7.26800685 14.176936,7.30489804 L10.791003,9.38442106 C10.2745477,11.2232426 9.80701802,12.8955861 9.38841935,14.4014301 C9.38729456,14.4173385 9.38286109,14.4325972 9.37586374,14.4465999 C8.90262248,16.1492282 8.49221447,17.6380515 8.14464774,18.9130389 L11.3752227,17.4122105 C11.4391577,17.3825082 11.5150877,17.4102119 11.5448171,17.4740883 C11.5745466,17.5379647 11.5468176,17.6138253 11.4828826,17.6435276 L8.07232174,19.2279721 C8.06737513,19.2302702 8.06235672,19.2322245 8.05729345,19.2338452 C7.51450683,21.2295376 7.13486607,22.6700774 6.91840479,23.5553349 C6.90167193,23.6237671 6.83258129,23.6656899 6.76408654,23.6489724 C6.6955918,23.6322548 6.65363049,23.5632274 6.67036336,23.4947954 C7.03212193,22.0153182 7.84785186,18.9912462 9.11770929,14.4219768 L9.11770929,14.4219768 Z" id="Shape" fill="#FFFFFF"></path>
                                <path d="M-1.65966186e-13,28.9954584 C6.03095956,18.3154552 14.2924767,16.2060918 24.7845512,22.6673685 C22.4229818,27.5944825 19.0413228,30.9730472 14.639574,32.8030626 C10.2378251,34.6330781 5.35796709,33.3638767 -1.65966186e-13,28.9954584 Z" id="Shape" fill="url(#linearGradient-5)"></path>
                                <path d="M10.178317,26.2357277 L11.6431424,22.388386 C11.703663,22.2294297 11.9423158,22.3201276 11.8817952,22.4790838 L10.4812516,26.1575903 C13.9279783,25.2689518 18.2302138,24.1729593 23.3882004,22.8695459 C23.4565567,22.8522724 23.5259863,22.8936325 23.5432757,22.9619264 C23.560565,23.0302203 23.519167,23.0995864 23.4508106,23.1168598 C20.6258873,23.8307126 18.0576483,24.4823504 15.7461337,25.0717621 L18.9986669,26.8302422 C19.0606784,26.8637688 19.0837452,26.9411717 19.0501881,27.0031264 C19.0166308,27.0650813 18.939157,27.0881269 18.8771454,27.0546004 L15.3816071,25.1647397 C13.5294597,25.637295 11.8460807,26.0689436 10.331491,26.4596795 C10.3171328,26.4666651 10.3016821,26.4704601 10.2860383,26.4714061 C8.57355151,26.9132555 7.07781073,27.3025679 5.79884688,27.6393347 L8.7150827,29.6841221 C8.77279666,29.7245895 8.78674762,29.8041385 8.74624306,29.8617996 C8.70573851,29.9194608 8.62611667,29.933399 8.56840273,29.8929315 L5.48969628,27.7342241 C5.48523026,27.7310926 5.4810263,27.7277272 5.47708933,27.724156 C3.47579346,28.2523651 2.03728685,28.6441571 1.16169869,28.8994964 C1.09401407,28.9192347 1.0231292,28.8804167 1.00337291,28.812794 C0.983616622,28.7451713 1.02247021,28.6743513 1.09015484,28.654613 C2.55347254,28.2278798 5.58265989,27.4216402 10.178317,26.2357277 Z" id="Shape" fill="#FFFFFF"></path>
                            </g>
                            <path d="M140.700831,109.348262 C140.700831,96.2957175 140.700831,79.7938015 140.700831,71.2696033 C130.131055,71.2696033 121.562558,79.7938015 121.562558,90.3089328 C121.562558,100.824064 130.131055,109.348262 140.700831,109.348262 Z" id="Shape" fill="#4BC4FC" transform="translate(131.131694, 90.308933) rotate(90.000000) translate(-131.131694, -90.308933) "></path>
                            <path d="M130.96392,73.4157397 C130.96392,73.7262972 130.711918,73.9780538 130.401058,73.9780538 C130.090197,73.9780538 129.838195,73.7262972 129.838195,73.4157397 C129.838195,73.1051821 130.090197,72.8534255 130.401058,72.8534255 C130.711918,72.8534255 130.96392,73.1051821 130.96392,73.4157397 Z M130.96392,71.1664832 C130.96392,71.4770407 130.711918,71.7287973 130.401058,71.7287973 C130.090197,71.7287973 129.838195,71.4770407 129.838195,71.1664832 C129.838195,70.8559256 130.090197,70.604169 130.401058,70.604169 C130.711918,70.604169 130.96392,70.8559256 130.96392,71.1664832 Z M130.96392,68.9172267 C130.96392,69.2277842 130.711918,69.4795407 130.401058,69.4795407 C130.090197,69.4795407 129.838195,69.2277842 129.838195,68.9172267 C129.838195,68.6066691 130.090197,68.3549125 130.401058,68.3549125 C130.711918,68.3549125 130.96392,68.6066691 130.96392,68.9172267 Z M130.96392,66.66797 C130.96392,66.9785276 130.711918,67.2302842 130.401058,67.2302842 C130.090197,67.2302842 129.838195,66.9785276 129.838195,66.66797 C129.838195,66.3574125 130.090197,66.105656 130.401058,66.105656 C130.711918,66.105656 130.96392,66.3574125 130.96392,66.66797 Z M130.96392,64.4187135 C130.96392,64.729271 130.711918,64.9810277 130.401058,64.9810277 C130.090197,64.9810277 129.838195,64.729271 129.838195,64.4187135 C129.838195,64.108156 130.090197,63.8563994 130.401058,63.8563994 C130.711918,63.8563994 130.96392,64.108156 130.96392,64.4187135 Z M130.96392,62.169457 C130.96392,62.4800145 130.711918,62.7317712 130.401058,62.7317712 C130.090197,62.7317712 129.838195,62.4800145 129.838195,62.169457 C129.838195,61.8588995 130.090197,61.6071429 130.401058,61.6071429 C130.711918,61.6071429 130.96392,61.8588995 130.96392,62.169457 Z M133.215372,73.4157397 C133.215372,73.7262972 132.96337,73.9780538 132.65251,73.9780538 C132.341649,73.9780538 132.089647,73.7262972 132.089647,73.4157397 C132.089647,73.1051821 132.341649,72.8534255 132.65251,72.8534255 C132.96337,72.8534255 133.215372,73.1051821 133.215372,73.4157397 Z M133.215372,71.1664832 C133.215372,71.4770407 132.96337,71.7287973 132.65251,71.7287973 C132.341649,71.7287973 132.089647,71.4770407 132.089647,71.1664832 C132.089647,70.8559256 132.341649,70.604169 132.65251,70.604169 C132.96337,70.604169 133.215372,70.8559256 133.215372,71.1664832 Z M133.215372,68.9172267 C133.215372,69.2277842 132.96337,69.4795407 132.65251,69.4795407 C132.341649,69.4795407 132.089647,69.2277842 132.089647,68.9172267 C132.089647,68.6066691 132.341649,68.3549125 132.65251,68.3549125 C132.96337,68.3549125 133.215372,68.6066691 133.215372,68.9172267 Z M133.215372,66.66797 C133.215372,66.9785276 132.96337,67.2302842 132.65251,67.2302842 C132.341649,67.2302842 132.089647,66.9785276 132.089647,66.66797 C132.089647,66.3574125 132.341649,66.105656 132.65251,66.105656 C132.96337,66.105656 133.215372,66.3574125 133.215372,66.66797 Z M133.215372,64.4187135 C133.215372,64.729271 132.96337,64.9810277 132.65251,64.9810277 C132.341649,64.9810277 132.089647,64.729271 132.089647,64.4187135 C132.089647,64.108156 132.341649,63.8563994 132.65251,63.8563994 C132.96337,63.8563994 133.215372,64.108156 133.215372,64.4187135 Z M133.215372,62.169457 C133.215372,62.4800145 132.96337,62.7317712 132.65251,62.7317712 C132.341649,62.7317712 132.089647,62.4800145 132.089647,62.169457 C132.089647,61.8588995 132.341649,61.6071429 132.65251,61.6071429 C132.96337,61.6071429 133.215372,61.8588995 133.215372,62.169457 Z M135.466824,73.4157397 C135.466824,73.7262972 135.214821,73.9780538 134.903962,73.9780538 C134.593101,73.9780538 134.341098,73.7262972 134.341098,73.4157397 C134.341098,73.1051821 134.593101,72.8534255 134.903962,72.8534255 C135.214821,72.8534255 135.466824,73.1051821 135.466824,73.4157397 Z M135.466824,71.1664832 C135.466824,71.4770407 135.214821,71.7287973 134.903962,71.7287973 C134.593101,71.7287973 134.341098,71.4770407 134.341098,71.1664832 C134.341098,70.8559256 134.593101,70.604169 134.903962,70.604169 C135.214821,70.604169 135.466824,70.8559256 135.466824,71.1664832 Z M135.466824,68.9172267 C135.466824,69.2277842 135.214821,69.4795407 134.903962,69.4795407 C134.593101,69.4795407 134.341098,69.2277842 134.341098,68.9172267 C134.341098,68.6066691 134.593101,68.3549125 134.903962,68.3549125 C135.214821,68.3549125 135.466824,68.6066691 135.466824,68.9172267 Z M135.466824,66.66797 C135.466824,66.9785276 135.214821,67.2302842 134.903962,67.2302842 C134.593101,67.2302842 134.341098,66.9785276 134.341098,66.66797 C134.341098,66.3574125 134.593101,66.105656 134.903962,66.105656 C135.214821,66.105656 135.466824,66.3574125 135.466824,66.66797 Z M135.466824,64.4187135 C135.466824,64.729271 135.214821,64.9810277 134.903962,64.9810277 C134.593101,64.9810277 134.341098,64.729271 134.341098,64.4187135 C134.341098,64.108156 134.593101,63.8563994 134.903962,63.8563994 C135.214821,63.8563994 135.466824,64.108156 135.466824,64.4187135 Z M135.466824,62.169457 C135.466824,62.4800145 135.214821,62.7317712 134.903962,62.7317712 C134.593101,62.7317712 134.341098,62.4800145 134.341098,62.169457 C134.341098,61.8588995 134.593101,61.6071429 134.903962,61.6071429 C135.214821,61.6071429 135.466824,61.8588995 135.466824,62.169457 Z M137.718275,73.4157397 C137.718275,73.7262972 137.466273,73.9780538 137.155412,73.9780538 C136.844552,73.9780538 136.59255,73.7262972 136.59255,73.4157397 C136.59255,73.1051821 136.844552,72.8534255 137.155412,72.8534255 C137.466273,72.8534255 137.718275,73.1051821 137.718275,73.4157397 Z M137.718275,71.1664832 C137.718275,71.4770407 137.466273,71.7287973 137.155412,71.7287973 C136.844552,71.7287973 136.59255,71.4770407 136.59255,71.1664832 C136.59255,70.8559256 136.844552,70.604169 137.155412,70.604169 C137.466273,70.604169 137.718275,70.8559256 137.718275,71.1664832 Z M137.718275,68.9172267 C137.718275,69.2277842 137.466273,69.4795407 137.155412,69.4795407 C136.844552,69.4795407 136.59255,69.2277842 136.59255,68.9172267 C136.59255,68.6066691 136.844552,68.3549125 137.155412,68.3549125 C137.466273,68.3549125 137.718275,68.6066691 137.718275,68.9172267 Z M137.718275,66.66797 C137.718275,66.9785276 137.466273,67.2302842 137.155412,67.2302842 C136.844552,67.2302842 136.59255,66.9785276 136.59255,66.66797 C136.59255,66.3574125 136.844552,66.105656 137.155412,66.105656 C137.466273,66.105656 137.718275,66.3574125 137.718275,66.66797 Z M137.718275,64.4187135 C137.718275,64.729271 137.466273,64.9810277 137.155412,64.9810277 C136.844552,64.9810277 136.59255,64.729271 136.59255,64.4187135 C136.59255,64.108156 136.844552,63.8563994 137.155412,63.8563994 C137.466273,63.8563994 137.718275,64.108156 137.718275,64.4187135 Z M137.718275,62.169457 C137.718275,62.4800145 137.466273,62.7317712 137.155412,62.7317712 C136.844552,62.7317712 136.59255,62.4800145 136.59255,62.169457 C136.59255,61.8588995 136.844552,61.6071429 137.155412,61.6071429 C137.466273,61.6071429 137.718275,61.8588995 137.718275,62.169457 Z M139.969727,73.4157397 C139.969727,73.7262972 139.717725,73.9780538 139.406864,73.9780538 C139.096004,73.9780538 138.844002,73.7262972 138.844002,73.4157397 C138.844002,73.1051821 139.096004,72.8534255 139.406864,72.8534255 C139.717725,72.8534255 139.969727,73.1051821 139.969727,73.4157397 Z M139.969727,71.1664832 C139.969727,71.4770407 139.717725,71.7287973 139.406864,71.7287973 C139.096004,71.7287973 138.844002,71.4770407 138.844002,71.1664832 C138.844002,70.8559256 139.096004,70.604169 139.406864,70.604169 C139.717725,70.604169 139.969727,70.8559256 139.969727,71.1664832 Z M139.969727,68.9172267 C139.969727,69.2277842 139.717725,69.4795407 139.406864,69.4795407 C139.096004,69.4795407 138.844002,69.2277842 138.844002,68.9172267 C138.844002,68.6066691 139.096004,68.3549125 139.406864,68.3549125 C139.717725,68.3549125 139.969727,68.6066691 139.969727,68.9172267 Z M139.969727,66.66797 C139.969727,66.9785276 139.717725,67.2302842 139.406864,67.2302842 C139.096004,67.2302842 138.844002,66.9785276 138.844002,66.66797 C138.844002,66.3574125 139.096004,66.105656 139.406864,66.105656 C139.717725,66.105656 139.969727,66.3574125 139.969727,66.66797 Z M139.969727,64.4187135 C139.969727,64.729271 139.717725,64.9810277 139.406864,64.9810277 C139.096004,64.9810277 138.844002,64.729271 138.844002,64.4187135 C138.844002,64.108156 139.096004,63.8563994 139.406864,63.8563994 C139.717725,63.8563994 139.969727,64.108156 139.969727,64.4187135 Z M139.969727,62.169457 C139.969727,62.4800145 139.717725,62.7317712 139.406864,62.7317712 C139.096004,62.7317712 138.844002,62.4800145 138.844002,62.169457 C138.844002,61.8588995 139.096004,61.6071429 139.406864,61.6071429 C139.717725,61.6071429 139.969727,61.8588995 139.969727,62.169457 Z M142.221179,73.4157397 C142.221179,73.7262972 141.969177,73.9780538 141.658316,73.9780538 C141.347456,73.9780538 141.095454,73.7262972 141.095454,73.4157397 C141.095454,73.1051821 141.347456,72.8534255 141.658316,72.8534255 C141.969177,72.8534255 142.221179,73.1051821 142.221179,73.4157397 Z M142.221179,71.1664832 C142.221179,71.4770407 141.969177,71.7287973 141.658316,71.7287973 C141.347456,71.7287973 141.095454,71.4770407 141.095454,71.1664832 C141.095454,70.8559256 141.347456,70.604169 141.658316,70.604169 C141.969177,70.604169 142.221179,70.8559256 142.221179,71.1664832 Z M142.221179,68.9172267 C142.221179,69.2277842 141.969177,69.4795407 141.658316,69.4795407 C141.347456,69.4795407 141.095454,69.2277842 141.095454,68.9172267 C141.095454,68.6066691 141.347456,68.3549125 141.658316,68.3549125 C141.969177,68.3549125 142.221179,68.6066691 142.221179,68.9172267 Z M142.221179,66.66797 C142.221179,66.9785276 141.969177,67.2302842 141.658316,67.2302842 C141.347456,67.2302842 141.095454,66.9785276 141.095454,66.66797 C141.095454,66.3574125 141.347456,66.105656 141.658316,66.105656 C141.969177,66.105656 142.221179,66.3574125 142.221179,66.66797 Z M142.221179,64.4187135 C142.221179,64.729271 141.969177,64.9810277 141.658316,64.9810277 C141.347456,64.9810277 141.095454,64.729271 141.095454,64.4187135 C141.095454,64.108156 141.347456,63.8563994 141.658316,63.8563994 C141.969177,63.8563994 142.221179,64.108156 142.221179,64.4187135 Z M142.221179,62.169457 C142.221179,62.4800145 141.969177,62.7317712 141.658316,62.7317712 C141.347456,62.7317712 141.095454,62.4800145 141.095454,62.169457 C141.095454,61.8588995 141.347456,61.6071429 141.658316,61.6071429 C141.969177,61.6071429 142.221179,61.8588995 142.221179,62.169457 Z" id="Shape" fill="#CDCBDF"></path>
                        </g>
                        <g id="Laptop" transform="translate(7.532403, 16.964286)">
                            <path d="M0,78.5714286 L127.667842,78.5714286 C127.667842,80.9665409 125.724441,82.9081633 123.327135,82.9081633 L4.34070661,82.9081633 C1.94340055,82.9081633 0,80.9665409 0,78.5714286 Z" id="Shape" fill="#1056BF"></path>
                            <path d="M8.93674891,0 L118.731093,0 C120.141273,0 121.28445,1.14213074 121.28445,2.55102041 L121.28445,76.5306122 L6.38339208,76.5306122 L6.38339208,2.55102041 C6.38339208,1.14213074 7.52656887,0 8.93674891,0 Z" id="Shape" fill="url(#linearGradient-6)"></path>
                            <path d="M11.7454414,5.09170599 L115.667064,5.09170599 C115.9491,5.09170599 116.177736,5.32013214 116.177736,5.60191008 L116.177736,12.4409037 C116.177736,12.7226816 115.9491,12.9511078 115.667064,12.9511078 L11.7454414,12.9511078 C11.4634054,12.9511078 11.2347701,12.7226816 11.2347701,12.4409037 L11.2347701,5.60191008 C11.2347701,5.32013214 11.4634054,5.09170599 11.7454414,5.09170599 Z" id="Shape" fill="#FEF3F4"></path>
                            <path d="M15.7031445,10.9693878 C14.6455095,10.9693878 13.7881269,10.1127897 13.7881269,9.05612245 C13.7881269,7.9994552 14.6455095,7.14285714 15.7031445,7.14285714 C16.7607795,7.14285714 17.6181621,7.9994552 17.6181621,9.05612245 C17.6181621,10.1127897 16.7607795,10.9693878 15.7031445,10.9693878 Z M23.363215,10.9693878 C22.30558,10.9693878 21.4481974,10.1127897 21.4481974,9.05612245 C21.4481974,7.9994552 22.30558,7.14285714 23.363215,7.14285714 C24.42085,7.14285714 25.2782326,7.9994552 25.2782326,9.05612245 C25.2782326,10.1127897 24.42085,10.9693878 23.363215,10.9693878 Z M31.0232855,10.9693878 C29.9656505,10.9693878 29.1082679,10.1127897 29.1082679,9.05612245 C29.1082679,7.9994552 29.9656505,7.14285714 31.0232855,7.14285714 C32.0809205,7.14285714 32.9383031,7.9994552 32.9383031,9.05612245 C32.9383031,10.1127897 32.0809205,10.9693878 31.0232855,10.9693878 Z" id="Combined-Shape" fill="#00ADFF"></path>
                            <path d="M11.7454414,15.2957876 L115.667064,15.2957876 C115.9491,15.2957876 116.177736,15.5242138 116.177736,15.8059917 L116.177736,74.6173469 C116.177736,74.8991249 115.9491,75.127551 115.667064,75.127551 L11.7454414,75.127551 C11.4634054,75.127551 11.2347701,74.8991249 11.2347701,74.6173469 L11.2347701,15.8059917 C11.2347701,15.5242138 11.4634054,15.2957876 11.7454414,15.2957876 Z" id="Shape" fill="#FFFFFF"></path>
                            <path d="M68.6852988,47.5354584 L110.943354,47.5354584 L110.943354,67.6020408 L68.6852988,67.6020408 L68.6852988,47.5354584 Z M68.6852988,20.4081633 L110.943354,20.4081633 L110.943354,39.6683673 L68.6852988,39.6683673 L68.6852988,20.4081633 Z M16.3414837,20.4081633 L63.5785851,20.4081633 L63.5785851,39.6683673 L16.3414837,39.6683673 L16.3414837,20.4081633 Z" id="Combined-Shape" fill="url(#linearGradient-7)"></path>
                            <path d="M77.7497155,35.4591837 C74.7883375,35.4591837 72.3876662,33.0607091 72.3876662,30.1020408 C72.3876662,27.1433726 74.7883375,24.744898 77.7497155,24.744898 C80.7110935,24.744898 83.1117649,27.1433726 83.1117649,30.1020408 C83.1117649,33.0607091 80.7110935,35.4591837 77.7497155,35.4591837 Z M88.2184785,24.744898 L100.219256,24.744898 L100.219256,27.0408163 L88.2184785,27.0408163 L88.2184785,24.744898 Z M88.2184785,33.1632653 L100.219256,33.1632653 L100.219256,35.4591837 L88.2184785,35.4591837 L88.2184785,33.1632653 Z M88.2184785,28.9540816 L100.219256,28.9540816 L100.219256,31.25 L88.2184785,31.25 L88.2184785,28.9540816 Z" id="Shape" fill="#FFFFFF"></path>
                            <path d="M88.2184785,51.7446421 L100.219256,51.7446421 L100.219256,54.0405605 L88.2184785,54.0405605 L88.2184785,51.7446421 Z M88.2184785,60.1630094 L100.219256,60.1630094 L100.219256,62.4589278 L88.2184785,62.4589278 L88.2184785,60.1630094 Z M88.2184785,55.9538258 L100.219256,55.9538258 L100.219256,58.2497441 L88.2184785,58.2497441 L88.2184785,55.9538258 Z M77.7497155,62.5 C74.7883375,62.5 72.3876662,60.1015254 72.3876662,57.1428571 C72.3876662,54.1841889 74.7883375,51.7857143 77.7497155,51.7857143 C80.7110935,51.7857143 83.1117649,54.1841889 83.1117649,57.1428571 C83.1117649,60.1015254 80.7110935,62.5 77.7497155,62.5 Z" id="Shape" fill="#FFFFFF"></path>
                            <path d="M78.7076758,28.8621445 C78.8995157,28.655593 79.2226292,28.6435246 79.4293699,28.835189 C79.6361107,29.0268534 79.6481901,29.3496713 79.4563501,29.5562228 L77.916289,31.2143861 C77.7399877,31.4042073 77.4493172,31.4319708 77.2402104,31.278962 L76.1712958,30.4968094 C75.9437589,30.3303148 75.8943979,30.0110579 76.0610451,29.7837292 C76.2276922,29.5564005 76.5472415,29.5070848 76.7747784,29.6735795 L77.4768803,30.1873255 L78.7076758,28.8621445 Z" id="Shape" fill="#00ADFF"></path>
                            <path d="M76.4337933,78.5714286 C76.0078824,79.8320999 74.8145446,80.7397959 73.4090089,80.7397959 L54.3865005,80.7397959 C52.9809648,80.7397959 51.787627,79.8320999 51.3617161,78.5714286 L0,78.5714286 L0,76.5306122 L127.667842,76.5306122 L127.667842,78.5714286 L76.4337933,78.5714286 L76.4337933,78.5714286 Z" id="Shape" fill="#1E1539"></path>
                        </g>
                        <g id="Package" transform="translate(33.448974, 46.301020)">
                            <polygon id="Shape" fill="url(#linearGradient-8)" points="36.257667 0 36.257667 26.1479592 5.10671366 26.1479592 5.10671366 0"></polygon>
                            <polygon id="Shape" fill="#00ADFF" points="23.6185507 0 23.6185507 26.1479592 0 26.1479592 0 0"></polygon>
                            <polygon id="Shape" fill="#FFFFFF" points="13.7881269 0 13.7881269 8.41836735 9.44742028 8.41836735 9.44742028 0"></polygon>
                        </g>
                        <g id="Package" transform="translate(19.150176, 65.306122)">
                            <polygon id="Shape" fill="#D64F53" points="41.7473842 0 41.7473842 28.1887755 5.48971719 28.1887755 5.48971719 0"></polygon>
                            <polygon id="Shape" fill="url(#linearGradient-9)" points="28.0869251 0 28.0869251 28.1887755 -4.14915466e-14 28.1887755 -4.14915466e-14 0"></polygon>
                            <polygon id="Shape" fill="#FFFFFF" points="14.9371375 0 14.9371375 9.05612245 10.3410952 9.05612245 10.3410952 0"></polygon>
                        </g>
                        <g id="Package" transform="translate(121.922789, 39.668367)">
                            <polygon id="Shape" fill="url(#linearGradient-10)" points="29.2359357 0 29.2359357 21.0459184 4.08221863 21.0459184 4.08221863 0"></polygon>
                            <polygon id="Shape" fill="#00ADFF" points="19.0303891 0 19.0303891 21.0459184 0 21.0459184 0 0"></polygon>
                            <polygon id="Shape" fill="#FFFFFF" points="11.1220756 -2.4894928e-13 11.1220756 6.74286705 7.65218976 6.74286705 7.65218976 -2.4894928e-13"></polygon>
                        </g>
                        <g id="Women" transform="translate(138.808422, 26.301368)">
                            <polygon id="Shape" fill="#211D41" points="12.3503021 21.8382596 15.3588055 13.6488962 16.2178489 12.238079 15.3588055 24.5704111 12.3503021 26.972926"></polygon>
                            <polygon id="Shape" fill="#F4B696" points="20.0905361 68.2139384 20.0905361 70.9709418 17.3293479 70.9709418 17.3293479 68.2139384"></polygon>
                            <path d="M20.1974209,70.7649588 L20.1974209,71.3377181 C20.1974209,71.8018556 20.1974209,72.2659932 20.1974209,72.7301309 C20.1974209,73.0682643 19.9230585,73.3423758 19.5846152,73.3423758 L14.1451194,73.3423758 C13.9294682,73.3423758 13.7546483,73.1286815 13.7546483,72.8650763 C13.7546483,71.8389138 14.5343471,71.7052134 15.4600882,71.3776261 L17.2972421,70.7649588 L20.1974209,70.7649588 Z" id="Shape" fill="#021038"></path>
                            <polygon id="Shape" fill="#F4B696" points="28.5388364 68.2139384 28.5388364 70.9709418 25.7776482 70.9709418 25.7776482 68.2139384"></polygon>
                            <polygon id="Shape" fill="#211D41" points="16.8408944 69.894707 15.5419981 33.2333912 24.5874751 33.0098568 20.4320161 69.894707"></polygon>
                            <path d="M28.645721,70.7649588 L28.645721,71.3377181 C28.645721,71.8018556 28.645721,72.2659932 28.645721,72.7301309 C28.645721,73.0682643 28.3713586,73.3423758 28.0329154,73.3423758 L22.5934197,73.3423758 C22.3777684,73.3423758 22.2029486,73.1286815 22.2029486,72.8650763 C22.2029486,71.8389138 22.9826473,71.7052134 23.9083884,71.3776261 L25.7455423,70.7649588 L28.645721,70.7649588 Z" id="Shape" fill="#021038"></path>
                            <polygon id="Shape" fill="url(#linearGradient-11)" points="25.2891946 69.894707 18.6060263 33.2333912 27.6515032 33.0098568 28.8803164 69.894707"></polygon>
                            <path d="M18.9484913,10.5682149 L20.6045804,10.4234585 C23.5546895,10.1655936 26.1554578,12.3459004 26.4135589,15.2933101 C26.4141047,15.2995423 26.4146395,15.3057756 26.4151634,15.3120097 L27.9324011,33.3665421 L15.518215,34.4516489 L14.6138359,21.0627528 C14.6138359,21.0627528 13.6249269,19.0148463 13.8960907,17.0294278 C14.100028,15.5362315 15.7807395,10.8451037 18.9484913,10.5682149 Z" id="Shape" fill="url(#linearGradient-12)"></path>
                            <path d="M17.1538736,11.6240859 C16.6787754,10.1400879 16.1707239,9.35734384 15.6297192,9.2758536 C14.8182122,9.15361825 14.3080424,9.11814827 14.2111091,8.32123355 C14.1141757,7.52431883 13.8412495,7.31581466 13.4827355,7.24247122 C13.1242214,7.16912778 12.7444491,6.74214079 13.5275539,5.98838093 C14.0496237,5.48587435 14.1892737,4.55687716 13.9465038,3.20138932 C16.9743903,1.30413017 18.9559933,1.46582629 19.8913131,3.68647767 C20.8266328,5.90712906 20.7047355,7.76447816 20.1790226,9.2758536 L20.5325349,10.6924164 C20.2968601,11.519072 19.7455357,12.1221231 18.8785616,12.5015697 C18.0115877,12.8810163 17.4366916,12.5885217 17.1538736,11.6240859 Z" id="Shape" fill="#F4B696"></path>
                            <polygon id="Shape" fill="#221E41" points="14.7603069 24.1546341 15.0207556 22.339508 18.2852613 17.3909921 24.0168721 18.1862751 15.5220506 34.4540272"></polygon>
                            <path d="M17.8210383,18.1426341 L22.0406378,20.7033966 L19.714642,24.3025423 C19.1031392,25.2487555 18.0209603,25.7830555 16.8971819,25.6935962 C12.827498,25.3696258 8.72969312,25.1484818 4.60376716,25.0301642 C4.29216897,25.2308069 3.77345346,25.361895 3.04762062,25.4234287 C1.23636,25.3802474 0.230723171,24.9601018 0.0307101265,24.162992 C-0.169302917,23.365882 0.607687947,22.9216763 2.36168272,22.8303744 L2.30027572,22.4761004 C2.29713797,22.4579978 2.29492344,22.4397476 2.2936407,22.4214203 C2.27273904,22.1227861 2.49810749,21.8637666 2.79701524,21.8428841 L3.18049776,22.6893828 C3.66365761,22.9161511 4.22674026,23.0070742 4.86974569,22.9621522 C7.49931013,22.8174474 11.337887,22.419012 16.3854763,21.7668457 L17.8210383,18.1426341 Z" id="Shape" fill="#F4B696"></path>
                            <path d="M18.4229875,16.1456244 L24.1396662,18.0777731 L19.7271907,24.3990136 C19.1044883,25.291087 18.0547947,25.7860927 16.9696779,25.6993784 C12.8761637,25.3722557 8.75419346,25.1491843 4.60376716,25.0301642 C4.60376716,25.0301642 4.86974569,22.9621522 4.86974569,22.9621522 C7.49931013,22.8174474 11.337887,22.419012 16.3854763,21.7668457 L18.4229875,16.1456244 Z" id="Shape" fill="url(#linearGradient-13)"></path>
                            <path d="M27.2077167,69.0832923 L27.0807044,69.0962011 L26.9902602,68.2079283 L27.1172724,68.1950195 L27.2077167,69.0832923 Z M26.9880665,66.9260583 L26.8610541,66.9389671 L26.7706098,66.0506941 L26.8976222,66.0377855 L26.9880665,66.9260583 Z M26.7684161,64.7688242 L26.6414038,64.7817329 L26.5509596,63.8934601 L26.6779719,63.8805513 L26.7684161,64.7688242 Z M26.5487659,62.6115901 L26.4217535,62.6244989 L26.3313093,61.736226 L26.4583216,61.7233172 L26.5487659,62.6115901 Z M26.3291155,60.454356 L26.2021033,60.4672648 L26.111659,59.5789918 L26.2386713,59.5660832 L26.3291155,60.454356 Z M26.1094653,58.2971219 L25.9824529,58.3100306 L25.8920087,57.4217578 L26.0190211,57.408849 L26.1094653,58.2971219 Z M25.889815,56.1398878 L25.7628026,56.1527966 L25.6723583,55.2645237 L25.7993707,55.2516149 L25.889815,56.1398878 Z M25.6701647,53.9826537 L25.5431523,53.9955625 L25.4527081,53.1072895 L25.5797205,53.0943809 L25.6701647,53.9826537 Z M25.4505144,51.8254196 L25.323502,51.8383283 L25.2330578,50.9500555 L25.3600701,50.9371467 L25.4505144,51.8254196 Z M25.230864,49.6681855 L25.1038518,49.6810943 L25.0134075,48.7928214 L25.1404199,48.7799126 L25.230864,49.6681855 Z M25.0112138,47.5109514 L24.8842014,47.5238602 L24.7937572,46.6355872 L24.9207696,46.6226786 L25.0112138,47.5109514 Z M24.7915635,45.3537173 L24.6645512,45.366626 L24.574107,44.4783532 L24.7011192,44.4654444 L24.7915635,45.3537173 Z M24.5719132,43.1964832 L24.4449008,43.209392 L24.3544566,42.3211191 L24.481469,42.3082103 L24.5719132,43.1964832 Z M24.3522629,41.0392491 L24.2252506,41.0521579 L24.1348064,40.1638849 L24.2618186,40.1509763 L24.3522629,41.0392491 Z M24.1326127,38.8820151 L24.0056003,38.8949237 L23.915156,38.0066509 L24.0421684,37.9937421 L24.1326127,38.8820151 Z M23.9129623,36.7247809 L23.78595,36.7376897 L23.6955058,35.8494168 L23.8225181,35.836508 L23.9129623,36.7247809 Z M23.6764015,34.4014639 L23.7499351,35.123654 L23.6229227,35.1365626 L23.5493891,34.4143727 L23.6764015,34.4014639 Z M23.6764015,34.4014639 L23.6933121,34.5675468 L23.5662997,34.5804556 L23.5493891,34.4143727 L23.6764015,34.4014639 Z M23.7521288,36.405524 L23.8791412,36.3926152 L23.9695853,37.280888 L23.842573,37.2937968 L23.7521288,36.405524 Z M23.971779,38.562758 L24.0987914,38.5498492 L24.1892356,39.4381221 L24.0622233,39.4510309 L23.971779,38.562758 Z M24.1914294,40.7199921 L24.3184418,40.7070833 L24.408886,41.5953562 L24.2818736,41.6082649 L24.1914294,40.7199921 Z M24.4110796,42.8772263 L24.538092,42.8643175 L24.6285362,43.7525903 L24.5015238,43.7654991 L24.4110796,42.8772263 Z M24.6307299,45.0344603 L24.7577423,45.0215515 L24.8481866,45.9098244 L24.7211742,45.9227332 L24.6307299,45.0344603 Z M24.8503803,47.1916944 L24.9773926,47.1787856 L25.0678368,48.0670585 L24.9408245,48.0799672 L24.8503803,47.1916944 Z M25.0700305,49.3489286 L25.1970429,49.3360198 L25.2874871,50.2242926 L25.1604748,50.2372014 L25.0700305,49.3489286 Z M25.2896809,51.5061626 L25.4166931,51.4932538 L25.5071374,52.3815267 L25.3801251,52.3944355 L25.2896809,51.5061626 Z M25.5093311,53.6633967 L25.6363435,53.6504879 L25.7267877,54.5387608 L25.5997753,54.5516695 L25.5093311,53.6633967 Z M25.7289814,55.8206307 L25.8559937,55.8077221 L25.9464379,56.6959949 L25.8194257,56.7089037 L25.7289814,55.8206307 Z M25.9486317,57.9778649 L26.0756441,57.9649561 L26.1660883,58.853229 L26.0390759,58.8661378 L25.9486317,57.9778649 Z M26.168282,60.135099 L26.2952943,60.1221902 L26.3857385,61.0104631 L26.2587263,61.0233718 L26.168282,60.135099 Z M26.3879322,62.292333 L26.5149446,62.2794244 L26.6053889,63.1676972 L26.4783765,63.180606 L26.3879322,62.292333 Z M26.6075826,64.4495672 L26.7345949,64.4366584 L26.8250391,65.3249312 L26.6980268,65.3378401 L26.6075826,64.4495672 Z M26.8272328,66.6068013 L26.9542452,66.5938925 L27.0446894,67.4821654 L26.9176771,67.4950741 L26.8272328,66.6068013 Z M27.0468832,68.7640353 L27.1738954,68.7511267 L27.2077167,69.0832923 L27.0807044,69.0962011 L27.0468832,68.7640353 Z" id="Shape" fill="#A587FF"></path>
                            <path d="M13.8421613,1.23354267 C13.0640656,2.92217293 13.6315102,3.89344166 15.5444953,4.14734883 C18.4139727,4.52820959 16.689889,8.11665605 18.7333831,9.01535583 C20.7768771,9.91405562 18.2928771,12.3288121 22.053058,12.3288121 C24.5598454,12.3288121 26.0493035,13.6639223 26.5214325,16.3341426 C26.4422606,12.7416485 25.5497192,10.3020529 23.8438082,9.01535583 C21.2849419,7.08531019 22.5624266,2.48250839 20.8164257,1.23354267 C19.0704247,-0.0154230453 17.2024767,-3.08593378e-13 15.9250016,-3.08593378e-13 C15.0733516,-3.08593378e-13 14.3790716,0.411183934 13.8421613,1.23354267 Z" id="Shape" fill="url(#linearGradient-14)"></path>
                        </g>
                        <g id="Men" transform="translate(102.839418, 26.883428)">
                            <polygon id="Shape" fill="#F4B696" points="8.78978026 67.7594288 11.5509685 67.7594288 11.5509685 70.5164321 8.78978026 70.5164321"></polygon>
                            <path d="M8.68289555,70.3104492 L11.5830743,70.3104492 L13.4202283,70.9231166 C14.3459692,71.2507038 15.125668,71.3844042 15.125668,72.4105667 C15.125668,72.6741719 14.9508482,72.8878661 14.7351969,72.8878661 L9.29570119,72.8878661 C8.95725798,72.8878661 8.68289555,72.6137547 8.68289555,72.2756212 L8.68289555,70.3104492 Z" id="Shape" fill="#021038"></path>
                            <polygon id="Shape" fill="#F4B696" points="0.341480051 67.7594288 3.10266825 67.7594288 3.10266825 70.5164321 0.341480051 70.5164321"></polygon>
                            <polygon id="Shape" fill="#211D41" points="12.039422 69.4401974 8.4483002 69.4401974 4.29284136 32.5553472 13.3383182 32.7788816"></polygon>
                            <path d="M19.0833711,19.1255904 L19.0833711,22.4171185 C17.9275575,22.5230635 16.7935032,22.644508 15.681208,22.781452 C14.6035051,22.9141372 13.5360068,22.4670404 12.8751767,21.6062115 L9.80726168,17.6097985 L14.4850332,13.2951431 L16.054079,18.7492858 C17.116599,18.886629 18.126363,19.0120638 19.0833711,19.1255904 Z" id="Shape" fill="#211D41"></path>
                            <path d="M0.234595347,70.3104492 L3.13477409,70.3104492 L4.97192805,70.9231166 C5.89766906,71.2507038 6.67736781,71.3844042 6.67736781,72.4105667 C6.67736781,72.6741719 6.50254797,72.8878661 6.28689675,72.8878661 L0.847400986,72.8878661 C0.508957777,72.8878661 0.234595347,72.6137547 0.234595347,72.2756212 L0.234595347,70.3104492 Z" id="Shape" fill="#021038"></path>
                            <polygon id="Shape" fill="url(#linearGradient-11)" points="3.59112179 69.4401974 1.45220413e-13 69.4401974 1.22881316 32.5553472 10.27429 32.7788816"></polygon>
                            <path d="M9.93182512,10.1137053 C13.5302952,10.4282426 15.1481587,12.6566989 14.785416,16.7990742 L13.3621013,33.9971393 L0.947915244,32.9120325 L2.46515301,14.8575001 C2.46567691,14.8512659 2.46621173,14.8450328 2.46675749,14.8388005 C2.7248586,11.8913908 5.32562687,9.71108397 8.27573601,9.9689489 C8.82776572,10.017201 9.37979541,10.0654532 9.93182512,10.1137053 Z" id="Shape" fill="url(#linearGradient-15)"></path>
                            <path d="M24.3738219,27.4910671 C23.7199712,27.5368388 22.8776406,27.1430657 22.438328,27.108749 C20.9693125,26.9939977 17.9706949,26.7914093 13.4424751,26.5009841 C12.6900157,26.4424312 11.6453199,26.1043036 11.0707916,25.6534056 L7.13818784,22.5670425 L10.2934313,18.7732838 L13.7351197,22.7035903 C17.5003753,23.9318671 20.7575713,24.2011705 22.8054872,24.6112996 C23.3161435,24.3445886 23.7234211,24.152146 24.02732,24.0339717 C24.4831684,23.8567102 25.0241513,24.0926795 25.2798617,24.2172835 C25.7286934,24.4359931 25.4355114,24.5686045 24.4003157,24.6151175 C25.0550608,24.6393149 25.5058012,24.6565654 25.7525367,24.6668694 C26.12264,24.6823251 26.5251975,25.2511532 26.2811626,26.2487199 C26.1184727,26.9137645 25.4826924,27.3278802 24.3738219,27.4910671 Z" id="Shape" fill="#F4B696"></path>
                            <path d="M11.7264427,11.1695764 C11.4436247,12.1340121 10.8687287,12.4265067 10.0017547,12.0470601 C9.13478072,11.6676135 8.5834563,11.0645624 8.34778146,10.2379068 L8.70129371,8.82134402 C8.17558097,7.30996858 8.05368351,5.45261948 8.98900326,3.23196809 C9.924323,1.0113167 11.9059261,0.849620584 14.9338126,2.74687973 C14.6910426,4.10236756 14.8306926,5.03136477 15.3527625,5.53387134 C16.1358673,6.2876312 15.756095,6.7146182 15.3975809,6.78796165 C15.0390668,6.86130508 14.7661406,7.06980923 14.6692072,7.86672395 C14.5722739,8.66363867 14.0621041,8.69910866 13.2505971,8.82134402 C12.7095925,8.90283426 12.201541,9.68557837 11.7264427,11.1695764 Z" id="Shape" fill="#F4B696"></path>
                            <path d="M8.33202895,8.78772902 C8.01210206,8.62725239 7.84242182,8.39892014 7.82298823,8.10273228 C7.79383786,7.65845048 8.06926545,7.48273913 7.30487739,6.49501695 C6.54048934,5.50729477 5.97620106,4.24883089 6.74102151,2.24256212 C7.50584195,0.236293337 8.7633103,0.198737557 10.0108094,0.223721866 C11.2583084,0.248706173 11.7449663,0.44561149 13.5028328,0.069570106 C15.2606992,-0.306471277 15.9989432,0.888267007 15.4491528,2.53530575 C14.8993622,4.1823445 12.3519342,3.8491537 11.9099438,3.73905394 C11.4679533,3.62895418 11.6182618,4.32585952 11.5895737,5.02281231 C11.5608857,5.71976509 11.1018161,5.82225361 10.9502884,5.70708824 C10.7987607,5.59192288 10.4668294,5.44094324 10.1128516,5.78878105 C9.75887379,6.13661885 9.99955373,6.77649736 10.2423554,6.83697922 C10.485157,6.89746107 10.8207946,6.86125742 10.8021241,7.14285656 C10.7834535,7.42445569 10.5417946,8.27125156 10.204401,8.69594186 C9.97947196,8.97906874 9.35534794,9.00966445 8.33202895,8.78772902 Z" id="Shape" fill="url(#linearGradient-16)"></path>
                            <path d="M11.6370641,19.8873489 L7.23982696,23.8041602 C4.01612483,20.4349751 3.02615724,18.0479388 4.2699242,16.6430514 C6.13557464,14.5357203 7.73748921,15.5474446 8.90188346,16.7673869 C9.67814631,17.5806818 10.5898732,18.620669 11.6370641,19.8873489 Z" id="Shape" fill="url(#linearGradient-17)"></path>
                            <path d="M1.94457044,68.5275779 L1.81768,68.5135233 L1.91615175,67.6261031 L2.04304219,67.6401575 L1.94457044,68.5275779 Z M2.18371612,66.3724142 L2.05682567,66.3583596 L2.15529743,65.4709393 L2.28218787,65.4849937 L2.18371612,66.3724142 Z M2.4228618,64.2172504 L2.29597135,64.2031958 L2.3944431,63.3157755 L2.52133355,63.32983 L2.4228618,64.2172504 Z M2.66200749,62.0620866 L2.53511703,62.048032 L2.63358878,61.1606116 L2.76047923,61.1746662 L2.66200749,62.0620866 Z M2.90115317,59.9069228 L2.77426271,59.8928682 L2.87273446,59.0054478 L2.9996249,59.0195024 L2.90115317,59.9069228 Z M3.14029884,57.7517591 L3.01340838,57.7377045 L3.11188013,56.8502841 L3.23877058,56.8643386 L3.14029884,57.7517591 Z M3.37944452,55.5965953 L3.25255406,55.5825407 L3.35102581,54.6951203 L3.47791626,54.7091749 L3.37944452,55.5965953 Z M3.6185902,53.4414315 L3.49169974,53.4273769 L3.59017149,52.5399565 L3.71706194,52.5540111 L3.6185902,53.4414315 Z M3.85773588,51.2862677 L3.73084542,51.2722131 L3.82931717,50.3847927 L3.95620761,50.3988473 L3.85773588,51.2862677 Z M4.09688155,49.131104 L3.96999109,49.1170494 L4.06846284,48.229629 L4.1953533,48.2436835 L4.09688155,49.131104 Z M4.33602723,46.9759402 L4.20913677,46.9618856 L4.30760852,46.0744652 L4.43449898,46.0885198 L4.33602723,46.9759402 Z M4.57517291,44.8207764 L4.44828245,44.8067218 L4.5467542,43.9193014 L4.67364466,43.933356 L4.57517291,44.8207764 Z M4.81431858,42.6656126 L4.68742813,42.651558 L4.78589988,41.7641376 L4.91279034,41.7781922 L4.81431858,42.6656126 Z M5.05346426,40.5104487 L4.9265738,40.4963943 L5.02504555,39.6089739 L5.15193601,39.6230284 L5.05346426,40.5104487 Z M5.29260994,38.3552849 L5.16571948,38.3412305 L5.26419123,37.4538101 L5.39108169,37.4678647 L5.29260994,38.3552849 Z M5.58119757,35.754554 L5.53175562,36.2001212 L5.40486516,36.1860667 L5.45430711,35.7404994 L5.58119757,35.754554 Z M5.26460338,37.4500959 L5.39149383,37.4641504 L5.29302209,38.3515708 L5.16613163,38.3375162 L5.26460338,37.4500959 Z M5.0254577,39.6052597 L5.15234815,39.6193142 L5.05387641,40.5067346 L4.92698595,40.49268 L5.0254577,39.6052597 Z M4.78631203,41.7604235 L4.91320247,41.7744779 L4.81473073,42.6618983 L4.68784028,42.6478438 L4.78631203,41.7604235 Z M4.54716635,43.9155872 L4.6740568,43.9296417 L4.57558506,44.8170621 L4.4486946,44.8030075 L4.54716635,43.9155872 Z M4.30802067,46.070751 L4.43491112,46.0848055 L4.33643937,46.9722259 L4.20954892,46.9581713 L4.30802067,46.070751 Z M4.06887499,48.2259148 L4.19576544,48.2399693 L4.09729369,49.1273897 L3.97040324,49.1133351 L4.06887499,48.2259148 Z M3.82972932,50.3810786 L3.95661976,50.395133 L3.85814801,51.2825534 L3.73125757,51.2684989 L3.82972932,50.3810786 Z M3.59058364,52.5362423 L3.71747409,52.5502968 L3.61900234,53.4377172 L3.49211189,53.4236626 L3.59058364,52.5362423 Z M3.35143796,54.6914061 L3.47832841,54.7054606 L3.37985666,55.592881 L3.25296621,55.5788264 L3.35143796,54.6914061 Z M3.11229228,56.8465699 L3.23918273,56.8606244 L3.14071098,57.7480448 L3.01382053,57.7339903 L3.11229228,56.8465699 Z M2.87314661,59.0017337 L3.00003705,59.0157881 L2.9015653,59.9032085 L2.77467486,59.8891541 L2.87314661,59.0017337 Z M2.63400093,61.1568974 L2.76089138,61.1709519 L2.66241963,62.0583723 L2.53552918,62.0443179 L2.63400093,61.1568974 Z M2.39485525,63.3120612 L2.5217457,63.3261157 L2.42327395,64.2135361 L2.2963835,64.1994816 L2.39485525,63.3120612 Z M2.15570958,65.467225 L2.28260002,65.4812795 L2.18412827,66.3686999 L2.05723782,66.3546454 L2.15570958,65.467225 Z M1.9165639,67.6223888 L2.04345434,67.6364432 L1.94498259,68.5238636 L1.81809215,68.5098092 L1.9165639,67.6223888 Z" id="Shape" fill="#A587FF"></path>
                        </g>
                        <g id="Package" transform="translate(60.897560, 72.448980)">
                            <polygon id="Shape" fill="url(#linearGradient-18)" points="29.2359357 0 29.2359357 21.0459184 4.08221863 21.0459184 4.08221863 0"></polygon>
                            <polygon id="Shape" fill="#0737A3" points="19.0303891 0 19.0303891 21.0459184 0 21.0459184 0 0"></polygon>
                            <polygon id="Shape" fill="#FFFFFF" points="11.1220756 -2.4894928e-13 11.1220756 6.74286705 7.65218976 6.74286705 7.65218976 -2.4894928e-13"></polygon>
                        </g>
                    </g>
                </g>
            </g>
        </g>
    </g>
</svg>