<?xml version="1.0" encoding="UTF-8"?>
<svg width="25px" height="25px" viewBox="0 0 25 25" version="1.1" xmlns="http://www.w3.org/2000/svg" xmlns:xlink="http://www.w3.org/1999/xlink">
    <title>FAQ@1x</title>
    <g id="Page-1" stroke="none" stroke-width="1" fill="none" fill-rule="evenodd">
        <g id="Settings" transform="translate(-20.000000, -482.000000)">
            <g id="Group-14-Copy" transform="translate(20.000000, 445.000000)">
                <g id="FAQ" transform="translate(0.000000, 37.000000)">
                    <rect id="Rectangle" x="0" y="0" width="25" height="25"></rect>
                    <g id="Chat" transform="translate(5.000000, 5.000000)" stroke="#7643E1" stroke-linecap="round" stroke-linejoin="round" stroke-width="1.5">
                        <path d="M8.04545447,-2.7000624e-14 C5.23749226,-0.0112812629 2.62845306,1.4456307 1.16840018,3.84027743 C-0.291652697,6.23492416 -0.389664847,9.21787308 0.910054167,11.7029043 L1.07031449,12.0152847 C1.20167285,12.2610963 1.22914984,12.5491356 1.14662894,12.8152835 C0.917936269,13.4226939 0.726790995,14.0435421 0.574270624,14.6743281 C0.574270624,14.9943276 0.665847954,15.1771845 1.00926294,15.1695654 C1.61751903,15.0352452 2.21654005,14.8621933 2.80265232,14.651471 C3.05508946,14.581954 3.32349628,14.5980322 3.56579674,14.6971852 C3.78710862,14.8038517 4.23736383,15.078137 4.25262671,15.078137 C7.19322803,16.6243466 10.7846363,16.1977759 13.2798017,14.0059313 C15.774967,11.8140867 16.655907,8.31198283 15.4940862,5.20322725 C14.3322654,2.09447168 11.3688712,0.0244245823 8.04545447,-2.7000624e-14 L8.04545447,-2.7000624e-14 Z" id="Path"></path>
                        <ellipse id="Oval" fill="#7643E1" cx="4.22973238" cy="8.00005304" rx="1" ry="1"></ellipse>
                        <ellipse id="Oval" fill="#7643E1" cx="8.04545447" cy="8.00005304" rx="1" ry="1"></ellipse>
                        <ellipse id="Oval" fill="#7643E1" cx="11.8611766" cy="8.00005304" rx="1" ry="1"></ellipse>
                    </g>
                </g>
            </g>
        </g>
    </g>
</svg>