<?xml version="1.0" encoding="UTF-8"?>
<svg width="25px" height="25px" viewBox="0 0 25 25" version="1.1" xmlns="http://www.w3.org/2000/svg" xmlns:xlink="http://www.w3.org/1999/xlink">
    <title>Terms@1x</title>
    <g id="Page-1" stroke="none" stroke-width="1" fill="none" fill-rule="evenodd">
        <g id="Settings" transform="translate(-20.000000, -585.000000)">
            <g id="Group-14-Copy-2" transform="translate(20.000000, 548.000000)">
                <g id="Terms" transform="translate(0.000000, 37.000000)">
                    <rect id="Rectangle" x="0" y="0" width="25" height="25"></rect>
                    <g id="Document" transform="translate(5.000000, 5.000000)" stroke="#0CBC63" stroke-linecap="round" stroke-linejoin="round" stroke-width="1.5">
                        <line x1="10.17296" y1="11.37872" x2="4.39696" y2="11.37872" id="Stroke-1"></line>
                        <line x1="10.17296" y1="8.02952" x2="4.39696" y2="8.02952" id="Stroke-2"></line>
                        <line x1="6.60104" y1="4.68808" x2="4.39704" y2="4.68808" id="Stroke-3"></line>
                        <path d="M10.32688,0.59984 C10.32688,0.59984 4.18528,0.60304 4.17568,0.60304 C1.96768,0.61664 0.60048,2.06944 0.60048,4.28544 L0.60048,11.64224 C0.60048,13.86944 1.97808,15.32784 4.20528,15.32784 C4.20528,15.32784 10.34608,15.32544 10.35648,15.32544 C12.56448,15.31184 13.93248,13.85824 13.93248,11.64224 L13.93248,4.28544 C13.93248,2.05824 12.55408,0.59984 10.32688,0.59984 Z" id="Stroke-4"></path>
                    </g>
                </g>
            </g>
        </g>
    </g>
</svg>